Starting job 3381077 ("fem_stokes_48x48x48_128nodes_run3_0") on c1-[3,6-7,9-12,14,17-19,23-24,29,31-32,34],c2-[29,31,33-36],c3-[29-31,33-36],c4-[29,31,33,35],c10-[3-7,10,14-18,20-23,25-28] at ma. 30. sep. 12:43:58 +0200 2013
Process 0: Number of global vertices: 117649
Process 0: Number of global cells: 663552
Process 0: Solving linear system of size 2855668 x 2855668 (PETSc Krylov solver).
Process 0: Assemble system time: 5.7409
Process 0: Assemble preconditioner time: 2.7432
Process 0: Solve time: 44.674
Process 0: Mesh size: 48 x 48 x 48 (unit cube)
Process 0: Size of matrix A: 2855668 x 2855668
Process 0: Number of processes: 128

Job step resource usage:
       JobID    JobName  AllocCPUS  MaxVMSize     MaxRSS    Elapsed ExitCode 
------------ ---------- ---------- ---------- ---------- ---------- -------- 
3381077      fem_stoke+        128                         00:01:45      0:0 
3381077.0          true         53    176120K      1092K   00:00:00      0:0 
3381077.1         orted         52          0          0   00:01:43      0:0 

Job 3381077 ("fem_stokes_48x48x48_128nodes_run3_0") completed on c1-[3,6-7,9-12,14,17-19,23-24,29,31-32,34],c2-[29,31,33-36],c3-[29-31,33-36],c4-[29,31,33,35],c10-[3-7,10,14-18,20-23,25-28] at ma. 30. sep. 12:45:42 +0200 2013
